module gitlab.com/redhat/centos-stream/src/kernel/documentation

go 1.14

require (
	github.com/goccy/go-yaml v1.8.8 // indirect
	gopkg.in/yaml.v1 v1.0.0-20140924161607-9f9df34309c0 // indirect
	gopkg.in/yaml.v2 v2.4.0 // indirect
)
